"0","x <- matrix(rnorm(49), 7, 7)"
"0","x"
"1","    "
"1","       [,1]"
"1","       [,2]"
"1","        [,3]"
"1","       [,4]"
"1","       [,5]"
"1","        [,7]"
"1","
[1,]"
"1","  0.2427359"
"1"," -0.7930715"
"1"," -0.88531654"
"1","  0.7551369"
"1"," -1.6734088"
"1"," -0.2989349"
"1","  1.95708658"
"1","
[2,]"
"1"," -0.2951703"
"1","  0.4597848"
"1","  1.59579092"
"1","  1.2806484"
"1"," -0.9709159"
"1","  0.09714738"
"1","
[3,]"
"1"," -0.1196470"
"1","  1.8392722"
"1"," -0.29780985"
"1"," -1.5584225"
"1"," -2.5023596"
"1","  0.2652299"
"1"," -0.75935526"
"1","
[4,]"
"1","  0.3631334"
"1","  0.5713991"
"1","  0.78337508"
"1","  0.6026037"
"1"," -1.2690924"
"1","  0.8181303"
"1","  1.18510579"
"1","
[5,]"
"1","  0.8078511"
"1","  1.7526651"
"1","  1.34601968"
"1"," -0.6338467"
"1","  0.6598075"
"1","  0.4437016"
"1","  0.14979820"
"1","
[6,]"
"1","  2.0094110"
"1"," -0.3535916"
"1","  0.21204146"
"1","  0.5472963"
"1"," -0.9203602"
"1"," -0.7472629"
"1"," -0.50567102"
"1","
[7,]"
"1","  0.1591373"
"1"," -0.8761758"
"1","  0.09085343"
"1","  1.8546887"
"1"," -0.4348726"
"1","  0.2399642"
"1"," -1.28090177"
"1","
"
"0","args(apply)"
"1","function (X, MARGIN, FUN, ...) 
"
"1","NULL
"
"0","apply(x, 1, mean)"
"1","[1]"
"1"," -0.09939606"
"1","  0.48440317"
"1"," -0.44758458"
"1","  0.43637927"
"1","  0.64657092"
"1","  0.03455186"
"1"," -0.03532950"
"1","
"
"0","apply(X = x, MARGIN = 1, FUN = mean)    ## Margin = 1 MEANS BY ROW"
"1","[1]"
"1"," -0.09939606"
"1","  0.48440317"
"1"," -0.44758458"
"1","  0.43637927"
"1","  0.64657092"
"1","  0.03455186"
"1"," -0.03532950"
"1","
"
"0","apply(X = x, MARGIN = 2, FUN = mean)    ## Margin = 2 MEANS BY COLUMN"
"1","[1]"
"1","  0.45249304"
"1","  0.37146889"
"1","  0.40642202"
"1","  0.39871333"
"1"," -0.69423395"
"1"," -0.03572682"
"1","  0.12045856"
"1","
"
