"0","apply(x, 1, quantile, probs = c(0.025, 0.975))
"
"1","     "
"1","      [,1]"
"1","      [,2]"
"1","       [,3]"
"1","       [,4]"
"1","      [,5]"
"1","      [,6]"
"1","         [,7]"
"1","
2.5% "
"1"," -1.421074"
"1"," -0.594554"
"1"," -0.8817993"
"1"," -1.682889"
"1"," -1.006690"
"1"," -0.818523009"
"1","
97.5%"
"1","  1.493700"
"1","  2.340276"
"1","  0.8579092"
"1","  0.8527852"
"1","  1.441296"
"1","  1.823828"
"1"," -0.002532097"
"1","
"
