"0","x <- matrix(1:6, 2, 3)
x
"
"1","    "
"1"," [,1]"
"1"," [,2]"
"1"," [,3]"
"1","
[1,]"
"1","    1"
"1","    3"
"1","    5"
"1","
[2,]"
"1","    2"
"1","    4"
"1","    6"
"1","
"
"1","[1]"
"1"," 3"
"1","
"
"0","x[2, 1]"
"1","[1]"
"1"," 2"
"1","
"
