year-month,Score-Domain,Score-Value
2017-10,A,65.05
2017-11,A,66.05
2017-12,A,68.25
2018-01,A,69.8
2018-02,A,78.3
2018-03,A,78.25
2018-04,A,78.35
2018-05,A,78.7
2018-06,A,79.25
2018-07,A,79.4
2018-08,A,79.15
2018-09,A,78.65
2018-10,A,79.05
2018-11,A,78.2
2018-12,A,78.15
